Data Chek ver3 last biz day version
…
## NA ML NAML NA
#NAfillna from prev non-na
print(factors_w)

## Warning: `...` is not empty.
## 
## We detected these problematic arguments:
## * `needs_dots`
## 
## These dots only exist to allow future extensions and should be empty.
## Did you misspecify an argument?

## # A tibble: 105,327 x 25
##    Date       CUSIP     Y     M     bp   g_e6 cfototcap neg_d_recsale
##    <date>     <chr> <int> <int>  <dbl>  <dbl>     <dbl>         <dbl>
##  1 2007-05-31 0008~  2007     5 0.278   0.666   0.0736        0.0455 
##  2 2007-05-31 0010~  2007     5 0.328   1.14    0.0612       -0.00591
##  3 2007-05-31 0013~  2007     5 0.135   0.861   0.113        -0.0155 
##  4 2007-05-31 0016~  2007     5 0.608   1.09    0.0634        0.0247 
##  5 2007-05-31 0020~  2007     5 0.443   1.02    0.0601       -0.0294 
##  6 2007-05-31 0028~  2007     5 0.151   0.969   0.0563        0.00960
##  7 2007-05-31 0028~  2007     5 0.133   1.18    0.0834        0.00200
##  8 2007-05-31 0049~  2007     5 0.0919 NA       0.00810       0.0198 
##  9 2007-05-31 0072~  2007     5 0.121   1.11    0.0426        0.0111 
## 10 2007-05-31 0075~  2007     5 0.232  NA       0.0689        0.00118
## # ... with 105,317 more rows, and 17 more variables: neg_g_employee1 <dbl>,
## #   neg_coaaccru <dbl>, d_cfmargin <dbl>, neg_g_employee2 <dbl>,
## #   neg_g_employee3 <dbl>, neg_noa <dbl>, g_e4 <dbl>, neg_g_sale3 <dbl>,
## #   neg_d_invsale <dbl>, d_grossmargin <dbl>, g_e5 <dbl>, neg_g_sale5 <dbl>,
## #   neg_ncoaaccru <dbl>, d_nimargin <dbl>, d_soa <dbl>, fcfototcap <dbl>,
## #   finaccru <dbl>
…
